com\app\benchmarkcontrol\BenchmarkController.class
com\app\benchmarkcontrol\BenchmarkResult.class
com\app\db\DBManager$1.class
com\app\exceptions\DBConnectionFailedException.class
com\app\db\DBManager$QueryType.class
com\app\db\DBManager.class
com\app\db\model\UserModel.class
com\app\main\BenchmarkMain.class
